name: Products
description: |-

  APIs for browsing and managing products.

  Public endpoints for listing and viewing products do not require authentication.
  Admin endpoints for creating, updating, and deleting products require authentication.
endpoints:
  -
    custom: []
    httpMethods:
      - GET
    uri: api/products
    metadata:
      custom: []
      groupName: Products
      groupDescription: |-

        APIs for browsing and managing products.

        Public endpoints for listing and viewing products do not require authentication.
        Admin endpoints for creating, updating, and deleting products require authentication.
      subgroup: ''
      subgroupDescription: ''
      title: 'List all products'
      description: |-
        Get a paginated list of all active products with optional filtering, searching, and sorting.
        Returns product data in both English and Arabic.
      authenticated: false
      deprecated: false
    headers:
      Content-Type: application/json
      Accept: application/json
    urlParameters: []
    cleanUrlParameters: []
    queryParameters:
      category_id:
        custom: []
        name: category_id
        description: 'Filter products by category ID.'
        required: false
        example: 1
        type: integer
        enumValues: []
        exampleWasSpecified: true
        nullable: false
        deprecated: false
      search:
        custom: []
        name: search
        description: 'Search products by name or description.'
        required: false
        example: coffee
        type: string
        enumValues: []
        exampleWasSpecified: true
        nullable: false
        deprecated: false
      sort_by:
        custom: []
        name: sort_by
        description: 'Sort field (price, name, created_at).'
        required: false
        example: price
        type: string
        enumValues: []
        exampleWasSpecified: true
        nullable: false
        deprecated: false
      sort_direction:
        custom: []
        name: sort_direction
        description: 'Sort direction (asc, desc). Default: asc.'
        required: false
        example: desc
        type: string
        enumValues: []
        exampleWasSpecified: true
        nullable: false
        deprecated: false
      per_page:
        custom: []
        name: per_page
        description: 'Number of items per page. Default: 15.'
        required: false
        example: 10
        type: integer
        enumValues: []
        exampleWasSpecified: true
        nullable: false
        deprecated: false
    cleanQueryParameters:
      category_id: 1
      search: coffee
      sort_by: price
      sort_direction: desc
      per_page: 10
    bodyParameters: []
    cleanBodyParameters: []
    fileParameters: []
    responses:
      -
        custom: []
        status: 200
        content: |-
          {
            "success": true,
            "data": {
              "en": [
                {
                  "id": 1,
                  "name": "Premium Coffee Beans",
                  "description": "High-quality arabica coffee beans",
                  "price": 25.00,
                  "cost": 15.00,
                  "stock": 100,
                  "sku": "COF-001",
                  "category_id": 1,
                  "is_active": true,
                  "slug": "premium-coffee-beans",
                  "grind_type": {"en": "Whole Bean", "ar": "حبوب كاملة"},
                  "weight": 0.5,
                  "weight_label": "500g",
                  "product_details": [
                    {"title": "Origin", "value": "Ethiopia"},
                    {"title": "Roast Level", "value": "Medium"}
                  ],
                  "created_at": "2024-01-15T10:00:00.000000Z",
                  "updated_at": "2024-01-15T10:00:00.000000Z",
                  "images": [
                    {
                      "id": 1,
                      "name": "coffee-beans-front",
                      "file_name": "coffee-beans-front.jpg",
                      "mime_type": "image/jpeg",
                      "size": 102400,
                      "url": "https://example.com/storage/products/coffee-beans-front.jpg"
                    }
                  ]
                }
              ],
              "ar": [
                {
                  "id": 1,
                  "name": "حبوب قهوة ممتازة",
                  "description": "حبوب قهوة أرابيكا عالية الجودة",
                  "price": 25.00,
                  "cost": 15.00,
                  "stock": 100,
                  "sku": "COF-001",
                  "category_id": 1,
                  "is_active": true,
                  "slug": "premium-coffee-beans",
                  "grind_type": {"en": "Whole Bean", "ar": "حبوب كاملة"},
                  "weight": 0.5,
                  "weight_label": "500g",
                  "product_details": [
                    {"title": "المنشأ", "value": "إثيوبيا"},
                    {"title": "درجة التحميص", "value": "متوسط"}
                  ],
                  "created_at": "2024-01-15T10:00:00.000000Z",
                  "updated_at": "2024-01-15T10:00:00.000000Z",
                  "images": [
                    {
                      "id": 1,
                      "name": "coffee-beans-front",
                      "file_name": "coffee-beans-front.jpg",
                      "mime_type": "image/jpeg",
                      "size": 102400,
                      "url": "https://example.com/storage/products/coffee-beans-front.jpg"
                    }
                  ]
                }
              ],
              "pagination": {
                "current_page": 1,
                "last_page": 5,
                "per_page": 15,
                "total": 75
              }
            }
          }
        headers: []
        description: Success
    responseFields: []
    auth: []
    controller: null
    method: null
    route: null
  -
    custom: []
    httpMethods:
      - GET
    uri: 'api/products/{product_id}'
    metadata:
      custom: []
      groupName: Products
      groupDescription: |-

        APIs for browsing and managing products.

        Public endpoints for listing and viewing products do not require authentication.
        Admin endpoints for creating, updating, and deleting products require authentication.
      subgroup: ''
      subgroupDescription: ''
      title: 'Get product details'
      description: |-
        Retrieve detailed information about a specific product.
        Returns product data in both English and Arabic.
      authenticated: false
      deprecated: false
    headers:
      Content-Type: application/json
      Accept: application/json
    urlParameters:
      product_id:
        custom: []
        name: product_id
        description: 'The ID of the product.'
        required: true
        example: 1
        type: integer
        enumValues: []
        exampleWasSpecified: false
        nullable: false
        deprecated: false
      product:
        custom: []
        name: product
        description: 'The product ID.'
        required: true
        example: 1
        type: integer
        enumValues: []
        exampleWasSpecified: true
        nullable: false
        deprecated: false
    cleanUrlParameters:
      product_id: 1
      product: 1
    queryParameters: []
    cleanQueryParameters: []
    bodyParameters: []
    cleanBodyParameters: []
    fileParameters: []
    responses:
      -
        custom: []
        status: 200
        content: |-
          {
            "success": true,
            "data": {
              "en": {
                "id": 1,
                "name": "Premium Coffee Beans",
                "description": "High-quality arabica coffee beans",
                "price": 25.00,
                "cost": 15.00,
                "stock": 100,
                "sku": "COF-001",
                "category_id": 1,
                "is_active": true,
                "grind_type": "whole_bean",
                "grind_type_label": "Whole Bean",
                "weight": 0.5,
                "weight_label": "500g",
                "product_details": [
                  {"title": "Origin", "value": "Ethiopia"},
                  {"title": "Roast Level", "value": "Medium"}
                ],
                "category": {
                  "id": 1,
                  "name": "Coffee Beans",
                  "slug": "coffee-beans"
                },
                "images": [
                  {
                    "id": 1,
                    "name": "coffee-beans-front",
                    "file_name": "coffee-beans-front.jpg",
                    "mime_type": "image/jpeg",
                    "size": 102400,
                    "url": "https://example.com/storage/products/coffee-beans-front.jpg"
                  }
                ],
                "created_at": "2024-01-15T10:00:00.000000Z",
                "updated_at": "2024-01-15T10:00:00.000000Z"
              },
              "ar": {
                "id": 1,
                "name": "حبوب قهوة ممتازة",
                "description": "حبوب قهوة أرابيكا عالية الجودة",
                "price": 25.00,
                "cost": 15.00,
                "stock": 100,
                "sku": "COF-001",
                "category_id": 1,
                "is_active": true,
                "grind_type_label": "حبوب كاملة",
                "weight": 0.5,
                "weight_label": "500g",
                "product_details": [
                  {"title": "المنشأ", "value": "إثيوبيا"},
                  {"title": "درجة التحميص", "value": "متوسط"}
                ],
                "category": {
                  "id": 1,
                  "name": "حبوب القهوة",
                  "slug": "coffee-beans"
                },
                "images": [
                  {
                    "id": 1,
                    "name": "coffee-beans-front",
                    "file_name": "coffee-beans-front.jpg",
                    "mime_type": "image/jpeg",
                    "size": 102400,
                    "url": "https://example.com/storage/products/coffee-beans-front.jpg"
                  }
                ],
                "created_at": "2024-01-15T10:00:00.000000Z",
                "updated_at": "2024-01-15T10:00:00.000000Z"
              }
            }
          }
        headers: []
        description: Success
      -
        custom: []
        status: 404
        content: |-
          {
            "success": false,
            "message": "Product not found"
          }
        headers: []
        description: 'Not Found'
    responseFields: []
    auth: []
    controller: null
    method: null
    route: null
