name: Orders
description: |-

  APIs for managing customer orders.

  All endpoints in this group require authentication via Laravel Sanctum.
endpoints:
  -
    custom: []
    httpMethods:
      - GET
    uri: api/orders
    metadata:
      custom: []
      groupName: Orders
      groupDescription: |-

        APIs for managing customer orders.

        All endpoints in this group require authentication via Laravel Sanctum.
      subgroup: ''
      subgroupDescription: ''
      title: 'List all orders'
      description: 'Get a paginated list of orders for the authenticated user.'
      authenticated: true
      deprecated: false
    headers:
      Authorization: 'Bearer {YOUR_API_TOKEN}'
      Content-Type: application/json
      Accept: application/json
    urlParameters: []
    cleanUrlParameters: []
    queryParameters:
      status:
        custom: []
        name: status
        description: 'Filter by order status.'
        required: false
        example: pending
        type: string
        enumValues: []
        exampleWasSpecified: true
        nullable: false
        deprecated: false
      payment_status:
        custom: []
        name: payment_status
        description: 'Filter by payment status.'
        required: false
        example: paid
        type: string
        enumValues: []
        exampleWasSpecified: true
        nullable: false
        deprecated: false
      per_page:
        custom: []
        name: per_page
        description: 'Number of items per page. Default: 15.'
        required: false
        example: 10
        type: integer
        enumValues: []
        exampleWasSpecified: true
        nullable: false
        deprecated: false
    cleanQueryParameters:
      status: pending
      payment_status: paid
      per_page: 10
    bodyParameters: []
    cleanBodyParameters: []
    fileParameters: []
    responses:
      -
        custom: []
        status: 200
        content: |-
          {
            "data": {
              "success": true,
              "en": [
                {
                  "id": 1,
                  "order_number": "ORD-2024-001",
                  "user_id": 1,
                  "status": "pending",
                  "payment_status": "pending",
                  "subtotal": 100.00,
                  "tax": 10.00,
                  "shipping_cost": 15.00,
                  "total_amount": 125.00,
                  "shipping_address": {
                    "street": "123 Main St",
                    "city": "Cairo",
                    "zip_code": "12345",
                    "country": "Egypt",
                    "building_number": "15",
                    "floor": "3",
                    "apartment": "5A",
                    "zone": "Maadi"
                  },
                  "notes": "Please deliver in the morning",
                  "created_at": "2024-01-15T10:00:00.000000Z",
                  "updated_at": "2024-01-15T10:00:00.000000Z"
                }
              ],
              "ar": [
                {
                  "id": 1,
                  "order_number": "ORD-2024-001",
                  "user_id": 1,
                  "status": "قيد الانتظار",
                  "payment_status": "pending",
                  "subtotal": 100.00,
                  "tax": 10.00,
                  "shipping_cost": 15.00,
                  "total_amount": 125.00,
                  "shipping_address": {
                    "street": "123 الشارع الرئيسي",
                    "city": "القاهرة",
                    "zip_code": "12345",
                    "country": "مصر",
                    "building_number": "15",
                    "floor": "3",
                    "apartment": "5A",
                    "zone": "المعادي"
                  },
                  "notes": "يرجى التسليم في الصباح",
                  "created_at": "2024-01-15T10:00:00.000000Z",
                  "updated_at": "2024-01-15T10:00:00.000000Z"
                }
              ],
              "pagination": {
                "current_page": 1,
                "last_page": 5,
                "per_page": 15,
                "total": 75
              }
            }
          }
        headers: []
        description: Success
      -
        custom: []
        status: 401
        content: |-
          {
            "message": "Unauthenticated."
          }
        headers: []
        description: Unauthenticated
    responseFields: []
    auth:
      - headers
      - Authorization
      - 'Bearer 6g43cv8PD1aE5beadkZfhV6'
    controller: null
    method: null
    route: null
  -
    custom: []
    httpMethods:
      - POST
    uri: api/orders
    metadata:
      custom: []
      groupName: Orders
      groupDescription: |-

        APIs for managing customer orders.

        All endpoints in this group require authentication via Laravel Sanctum.
      subgroup: ''
      subgroupDescription: ''
      title: 'Create order (Deprecated)'
      description: 'This endpoint is deprecated. Orders are now created only through the checkout flow after successful payment.'
      authenticated: true
      deprecated: 'Use POST /api/checkout/initiate instead'
    headers:
      Authorization: 'Bearer {YOUR_API_TOKEN}'
      Content-Type: application/json
      Accept: application/json
    urlParameters: []
    cleanUrlParameters: []
    queryParameters: []
    cleanQueryParameters: []
    bodyParameters: []
    cleanBodyParameters: []
    fileParameters: []
    responses:
      -
        custom: []
        status: 422
        content: |-
          {
            "success": false,
            "message": "Direct order creation is deprecated. Please use the checkout flow: POST /checkout/initiate",
            "checkout_url": "/checkout/initiate"
          }
        headers: []
        description: Deprecated
    responseFields: []
    auth:
      - headers
      - Authorization
      - 'Bearer 6g43cv8PD1aE5beadkZfhV6'
    controller: null
    method: null
    route: null
  -
    custom: []
    httpMethods:
      - GET
    uri: 'api/orders/{order_id}'
    metadata:
      custom: []
      groupName: Orders
      groupDescription: |-

        APIs for managing customer orders.

        All endpoints in this group require authentication via Laravel Sanctum.
      subgroup: ''
      subgroupDescription: ''
      title: 'Get order details'
      description: 'Retrieve details of a specific order including all items.'
      authenticated: true
      deprecated: false
    headers:
      Authorization: 'Bearer {YOUR_API_TOKEN}'
      Content-Type: application/json
      Accept: application/json
    urlParameters:
      order_id:
        custom: []
        name: order_id
        description: 'The ID of the order.'
        required: true
        example: 16
        type: integer
        enumValues: []
        exampleWasSpecified: false
        nullable: false
        deprecated: false
      order:
        custom: []
        name: order
        description: 'The order ID.'
        required: true
        example: 1
        type: integer
        enumValues: []
        exampleWasSpecified: true
        nullable: false
        deprecated: false
    cleanUrlParameters:
      order_id: 16
      order: 1
    queryParameters: []
    cleanQueryParameters: []
    bodyParameters: []
    cleanBodyParameters: []
    fileParameters: []
    responses:
      -
        custom: []
        status: 200
        content: |-
          {
            "success": true,
            "data": {
              "id": 1,
              "order_number": "ORD-2024-001",
              "user_id": 1,
              "status": "pending",
              "payment_status": "paid",
              "subtotal": 100.00,
              "tax": 10.00,
              "shipping_cost": 15.00,
              "total_amount": 125.00,
              "items": [
                {
                  "id": 1,
                  "product_id": 5,
                  "quantity": 2,
                  "price": 50.00,
                  "product": {"id": 5, "name": "Premium Coffee"}
                }
              ]
            }
          }
        headers: []
        description: Success
      -
        custom: []
        status: 403
        content: |-
          {
            "message": "This action is unauthorized."
          }
        headers: []
        description: Forbidden
      -
        custom: []
        status: 404
        content: |-
          {
            "message": "Order not found."
          }
        headers: []
        description: 'Not Found'
    responseFields: []
    auth:
      - headers
      - Authorization
      - 'Bearer 6g43cv8PD1aE5beadkZfhV6'
    controller: null
    method: null
    route: null
  -
    custom: []
    httpMethods:
      - PATCH
    uri: 'api/orders/{order_id}/status'
    metadata:
      custom: []
      groupName: Orders
      groupDescription: |-

        APIs for managing customer orders.

        All endpoints in this group require authentication via Laravel Sanctum.
      subgroup: ''
      subgroupDescription: ''
      title: 'Update order status'
      description: 'Update the status of an order. This endpoint is typically used by administrators.'
      authenticated: true
      deprecated: false
    headers:
      Authorization: 'Bearer {YOUR_API_TOKEN}'
      Content-Type: application/json
      Accept: application/json
    urlParameters:
      order_id:
        custom: []
        name: order_id
        description: 'The ID of the order.'
        required: true
        example: 16
        type: integer
        enumValues: []
        exampleWasSpecified: false
        nullable: false
        deprecated: false
      order:
        custom: []
        name: order
        description: 'The order ID.'
        required: true
        example: 1
        type: integer
        enumValues: []
        exampleWasSpecified: true
        nullable: false
        deprecated: false
    cleanUrlParameters:
      order_id: 16
      order: 1
    queryParameters: []
    cleanQueryParameters: []
    bodyParameters:
      status:
        custom: []
        name: status
        description: 'The new order status.'
        required: true
        example: shipped
        type: string
        enumValues: []
        exampleWasSpecified: true
        nullable: false
        deprecated: false
      status_ar:
        custom: []
        name: status_ar
        description: 'Optional Arabic status text.'
        required: false
        example: 'تم الشحن'
        type: string
        enumValues: []
        exampleWasSpecified: true
        nullable: true
        deprecated: false
      payment_status:
        custom: []
        name: payment_status
        description: 'Optional payment status update.'
        required: false
        example: paid
        type: string
        enumValues: []
        exampleWasSpecified: true
        nullable: false
        deprecated: false
    cleanBodyParameters:
      status: shipped
      status_ar: 'تم الشحن'
      payment_status: paid
    fileParameters: []
    responses:
      -
        custom: []
        status: 200
        content: |-
          {
            "success": true,
            "message": "Order status updated successfully",
            "data": {
              "id": 1,
              "order_number": "ORD-2024-001",
              "status": "shipped",
              "payment_status": "paid"
            }
          }
        headers: []
        description: Success
      -
        custom: []
        status: 422
        content: |-
          {
            "message": "The status field is required.",
            "errors": {"status": ["The status field is required."]}
          }
        headers: []
        description: 'Validation Error'
    responseFields: []
    auth:
      - headers
      - Authorization
      - 'Bearer 6g43cv8PD1aE5beadkZfhV6'
    controller: null
    method: null
    route: null
  -
    custom: []
    httpMethods:
      - POST
    uri: 'api/orders/{order_id}/cancel'
    metadata:
      custom: []
      groupName: Orders
      groupDescription: |-

        APIs for managing customer orders.

        All endpoints in this group require authentication via Laravel Sanctum.
      subgroup: ''
      subgroupDescription: ''
      title: 'Cancel order'
      description: "Cancel an existing order. Only orders that haven't been shipped can be cancelled."
      authenticated: true
      deprecated: false
    headers:
      Authorization: 'Bearer {YOUR_API_TOKEN}'
      Content-Type: application/json
      Accept: application/json
    urlParameters:
      order_id:
        custom: []
        name: order_id
        description: 'The ID of the order.'
        required: true
        example: 16
        type: integer
        enumValues: []
        exampleWasSpecified: false
        nullable: false
        deprecated: false
      order:
        custom: []
        name: order
        description: 'The order ID.'
        required: true
        example: 1
        type: integer
        enumValues: []
        exampleWasSpecified: true
        nullable: false
        deprecated: false
    cleanUrlParameters:
      order_id: 16
      order: 1
    queryParameters: []
    cleanQueryParameters: []
    bodyParameters: []
    cleanBodyParameters: []
    fileParameters: []
    responses:
      -
        custom: []
        status: 200
        content: |-
          {
            "success": true,
            "message": "Order cancelled successfully",
            "data": {
              "id": 1,
              "order_number": "ORD-2024-001",
              "status": "cancelled"
            }
          }
        headers: []
        description: Success
      -
        custom: []
        status: 403
        content: |-
          {
            "message": "This action is unauthorized."
          }
        headers: []
        description: Forbidden
      -
        custom: []
        status: 422
        content: |-
          {
            "success": false,
            "message": "Order cannot be cancelled after shipping."
          }
        headers: []
        description: 'Cannot Cancel'
    responseFields: []
    auth:
      - headers
      - Authorization
      - 'Bearer 6g43cv8PD1aE5beadkZfhV6'
    controller: null
    method: null
    route: null
  -
    custom: []
    httpMethods:
      - GET
    uri: api/admin/orders/statistics
    metadata:
      custom: []
      groupName: Orders
      groupDescription: |-

        APIs for managing customer orders.

        All endpoints in this group require authentication via Laravel Sanctum.
      subgroup: ''
      subgroupDescription: ''
      title: 'Get order statistics'
      description: 'Get aggregated order statistics. This endpoint is typically used by administrators for dashboard displays.'
      authenticated: true
      deprecated: false
    headers:
      Authorization: 'Bearer {YOUR_API_TOKEN}'
      Content-Type: application/json
      Accept: application/json
    urlParameters: []
    cleanUrlParameters: []
    queryParameters: []
    cleanQueryParameters: []
    bodyParameters: []
    cleanBodyParameters: []
    fileParameters: []
    responses:
      -
        custom: []
        status: 200
        content: |-
          {
            "success": true,
            "data": {
              "total_orders": 150,
              "pending_orders": 25,
              "processing_orders": 30,
              "shipped_orders": 45,
              "delivered_orders": 40,
              "cancelled_orders": 10,
              "total_revenue": 15000.00,
              "pending_revenue": 2500.00
            }
          }
        headers: []
        description: Success
    responseFields: []
    auth:
      - headers
      - Authorization
      - 'Bearer 6g43cv8PD1aE5beadkZfhV6'
    controller: null
    method: null
    route: null
